<?xml version="1.0" encoding="utf-8"?>
<!-- Generator: Adobe Illustrator 19.2.1, SVG Export Plug-In . SVG Version: 6.00 Build 0)  -->
<svg version="1.1" xmlns="http://www.w3.org/2000/svg" xmlns:xlink="http://www.w3.org/1999/xlink" x="0px" y="0px"
	 viewBox="0 0 100 100" style="enable-background:new 0 0 100 100;" xml:space="preserve">
<style type="text/css">
	.st0{display:none;}
	.st1{display:inline;}
	.st2{fill:none;stroke:#BFBFBF;stroke-width:0.5;stroke-miterlimit:10;}
	.st3{fill:none;stroke:#BFBFBF;stroke-width:0.5;stroke-miterlimit:10;stroke-dasharray:1.0004,3.0013;}
	.st4{fill:none;stroke:#BFBFBF;stroke-width:0.5;stroke-miterlimit:10;stroke-dasharray:1,3;}
	.st5{fill:#1EBBEE;}
</style>
<g id="grid" class="st0">
</g>
<g id="icons">
	<g>
		<path class="st5" d="M20.6,77.8c4.1,1.7,11.9,2.5,19.6,2.5c7.7,0,15.5-0.8,19.6-2.5c1.8-0.7,1.7-3.6,1.7-4.6l0-0.2
			c-0.2-3.7-0.4-9.3-3.6-14c-0.1-0.1-1.1-1.4-3.5-2.3c0,0-4.4-1.3-6.3-2.7c-0.1-0.1-0.2-0.1-0.3-0.1l-0.9-0.3
			c1.6-1.9,2.7-4.3,3.1-6.3c0.5-0.7,0.7-1.6,0.8-2c0.2-1.1,0.5-2.8-0.3-3.8c0.6-2,1.4-5.6-1.6-8.7c-1.7-1.8-4.1-2.7-6.1-3.4
			c-5.7-1.9-10.7,0.3-13,5.9c-0.4,1-0.9,3-0.1,6.3c-0.8,1.1-0.4,2.7-0.2,3.8l0,0.1c0.2,0.8,0.4,1.4,0.8,1.8c0.4,2.3,1.5,4.5,3.1,6.3
			c-0.3,0.1-0.6,0.2-0.9,0.3c-0.1,0-0.2,0.1-0.3,0.1c-1.9,1.4-6.2,2.7-6.3,2.7c-2.3,0.9-3.3,2.2-3.4,2.4c-3.2,4.7-3.4,10.3-3.6,14
			l0,0.2C18.9,74.2,18.8,77,20.6,77.8z M32.1,46.2c-0.1-0.1-0.3-0.4-0.5-1.1c0,0,0,0,0,0l0-0.1c-0.3-1.3-0.3-2-0.1-2.3
			c0.3-0.2,0.5-0.7,0.4-1.1c-0.9-3.1-0.4-4.9-0.1-5.5c1.5-3.5,4-5.3,7.2-5.3c1,0,2.1,0.2,3.3,0.6c1.8,0.6,3.9,1.4,5.3,2.9
			c2.3,2.5,1.6,5.3,1,7.1l-0.1,0.3c-0.1,0.3,0,0.7,0.2,1c0,0,0.1,0.1,0.1,0.1l0.1,0.1c0.1,0.1,0.3,0.6,0,2.2
			c-0.2,0.7-0.4,1.2-0.5,1.3c-0.1,0.1-0.2,0.3-0.3,0.5c-0.7,3.9-3.9,8.3-7.8,8.4c-3.1,0.1-7.3-3.7-7.9-8.4
			C32.3,46.5,32.2,46.3,32.1,46.2z M20.9,73.3l0-0.2c0.2-3.5,0.4-8.7,3.2-12.9c0,0,0.8-1,2.4-1.6c0.2-0.1,4.5-1.4,6.7-2.9
			c0.8-0.3,1.3-0.4,1.7-0.6c1.6,1.2,3.3,2,5,2c0.1,0,0.2,0,0.3,0c1.9-0.1,3.5-0.9,4.9-2l1.8,0.6c2.2,1.5,6.5,2.8,6.7,2.9
			c1.7,0.7,2.5,1.6,2.5,1.6c0,0,0,0,0,0c2.9,4.2,3.1,9.5,3.3,12.9l0,0.2c0.1,2-0.3,2.6-0.4,2.6c-7.8,3.1-30,3.1-37.7,0
			C21.2,75.9,20.8,75.3,20.9,73.3z"/>
		<path class="st5" d="M57.2,34.9v4.5c0,0.4,0.2,0.8,0.6,0.9c0.1,0.1,0.3,0.1,0.4,0.1c0.3,0,0.5-0.1,0.7-0.3l5.2-5.2h13.1
			c2,0,3.6-1.6,3.6-3.6V21.2c0-2-1.6-3.6-3.6-3.6H57.7c-2,0-3.6,1.6-3.6,3.6v10.2C54.1,33.1,55.5,34.6,57.2,34.9z M56.1,21.2
			c0-0.9,0.7-1.6,1.6-1.6h19.4c0.9,0,1.6,0.7,1.6,1.6v10.2c0,0.9-0.7,1.6-1.6,1.6H63.6c-0.3,0-0.5,0.1-0.7,0.3L59.2,37v-3
			c0-0.6-0.4-1-1-1h-0.5c-0.9,0-1.6-0.7-1.6-1.6V21.2z"/>
	</g>
</g>
</svg>
